module broker

go 1.18

require golang.org/x/vuln v0.0.0-20221229164908-ebf31f7dc3ef

require (
	github.com/go-chi/chi/v5 v5.0.8 // indirect
	github.com/go-chi/cors v1.2.1 // indirect
	golang.org/x/mod v0.7.0 // indirect
	golang.org/x/tools v0.4.1-0.20221217013628-b4dfc36097e2 // indirect
)
